{
  "project_info": {
    "project_number": "473000068631",
    "firebase_url": "https://zahala-fffc9.firebaseio.com",
    "project_id": "zahala-fffc9",
    "storage_bucket": "zahala-fffc9.appspot.com"
  },
  "client": [
    {
      "client_info": {
        "mobilesdk_app_id": "1:473000068631:android:4cd309beba67f034",
        "android_client_info": {
          "package_name": "com.tapper.zahala"
        }
      },
      "oauth_client": [
        {
          "client_id": "473000068631-ot431epjcgd8jdvgn0s52buh6qmbk1n0.apps.googleusercontent.com",
          "client_type": 3
        }
      ],
      "api_key": [
        {
          "current_key": "AIzaSyB4yUU1m3EqJxL_b7hfSET9fN5y704w0_g"
        }
      ],
      "services": {
        "analytics_service": {
          "status": 1
        },
        "appinvite_service": {
          "status": 1,
          "other_platform_oauth_client": []
        },
        "ads_service": {
          "status": 2
        }
      }
    }
  ],
  "configuration_version": "1"
}